{
"single_supply":true,
"solution_method":6,
"seed":10,
"n":50,
"i":1,
"d":3,
"k_card_rhs":10,
"knapsack_rhs":0,
"partition_matroid_no":3,
"partition_matroid_rhs":0,
"M":40,
"B":10,
"supply_max":1,
"ksb_no_sols":10
}
